{
    "content": [
        {
            "merchantId": null,
            "customerId": null,
            "nfcTagId": null,
            "terminalId": null,
            "contactMsisdn": null,
            "paymentType": "Spending",
            "status": null,
            "message": "Starbucks",
            "duration": null,
            "dateFallback": null,
            "accountRefId": "1021",
            "transactionRef": "512661",
            "balanceType": 3000,
            "extSession": "1719898288080",
            "sourceRef": "EDC/ECOM",
            "patternA": "278668662",
            "patternB": "1041",
            "patternC": null,
            "workingAmount": 10.00,
            "workingAmountDisplay": "10.00",
            "sendingAmountExclFee": null,
            "receivedAmount": null,
            "fxRate": null,
            "totalFee": null,
            "costToSend": null,
            "balanceBefore": 210.20,
            "balanceAfter": 200.20,
            "balanceAfterDisplay": "200.20",
            "workingCurrencyUnit": "USD",
            "workingCurrencySymbol": "$",
            "destinationCurrencyUnit": null,
            "destinationCurrencySymbol": null,
            "txType": "Spending",
            "transactionTypeCode": "DR",
            "billableEvent": 343,
            "billableEvent2": 0,
            "reversalOriginalTransactionId": 0,
            "transactionId": "512660",
            "utransactionId": null,
            "paymentTrailId": null,
            "originCode": null,
            "destinationCode": null,
            "creditName": "Aggregated Merchant",
            "debitName": null,
            "date": 1745421699659,
            "receiptAdditionalDetails": null,
            "salesId": 0,
            "latitude": -36.90544236136767,
            "longitude": 174.7164117816925,
            "productId": "et",
            "billerId": "etb",
            "pylId": 55081,
            "paymentModeId": null,
            "sourceAcctId": 1021,
            "relatedAcctId": 1041,
            "bplId": 55081,
            "transactionCCNumber": null,
            "externalAccount": null,
            "externalReference": "7gk38fj55k5",
            "additionalDetails": {
                "billerType": "",
                "payerName": "Joe+Bloggs",
                "merchantAccountId": "null",
                "billerName": "Starbucks",
                "productTypeCode": "",
                "productName": "Starbucks"
            }
        },
        {
            "merchantId": null,
            "customerId": null,
            "nfcTagId": null,
            "terminalId": null,
            "contactMsisdn": null,
            "paymentType": "Buy currency",
            "status": null,
            "message": "Buy USD",
            "duration": null,
            "dateFallback": null,
            "accountRefId": "1021",
            "transactionRef": "512641",
            "balanceType": 3000,
            "extSession": "1719189670468",
            "sourceRef": "EDC/ECOM",
            "patternA": "278668662",
            "patternB": "1041",
            "patternC": null,
            "workingAmount": 10.00,
            "workingAmountDisplay": "10.00",
            "sendingAmountExclFee": null,
            "receivedAmount": null,
            "fxRate": "34.44",
            "totalFee": null,
            "costToSend": null,
            "balanceBefore": 220.20,
            "balanceAfter": 210.20,
            "balanceAfterDisplay": "210.20",
            "workingCurrencyUnit": "USD",
            "workingCurrencySymbol": "$",
            "destinationCurrencyUnit": null,
            "destinationCurrencySymbol": null,
            "txType": "Buy currency",
            "transactionTypeCode": "CR",
            "billableEvent": 343,
            "billableEvent2": 0,
            "reversalOriginalTransactionId": 0,
            "transactionId": "512640",
            "utransactionId": null,
            "paymentTrailId": null,
            "originCode": null,
            "destinationCode": null,
            "creditName": "Currency Exchange",
            "debitName": null,
            "date": 1745417137627,
            "receiptAdditionalDetails": null,
            "salesId": 0,
            "latitude": -36.90544236136767,
            "longitude": 174.7164117816925,
            "productId": null,
            "billerId": null,
            "pylId": 55061,
            "paymentModeId": null,
            "sourceAcctId": 1021,
            "relatedAcctId": 1041,
            "bplId": 55061,
            "transactionCCNumber": null,
            "externalAccount": null,
            "externalReference": "7gk38fj55k5",
            "additionalDetails": null
        },
        {
            "merchantId": null,
            "customerId": null,
            "nfcTagId": null,
            "terminalId": null,
            "contactMsisdn": null,
            "paymentType": "Sell currency",
            "status": null,
            "message": "Sell JPY",
            "duration": null,
            "dateFallback": null,
            "accountRefId": "1021",
            "transactionRef": "512621",
            "balanceType": 3000,
            "extSession": "1719180874727",
            "sourceRef": null,
            "patternA": "278668662",
            "patternB": "1041",
            "patternC": null,
            "workingAmount": 10.00,
            "workingAmountDisplay": "10.00",
            "sendingAmountExclFee": null,
            "receivedAmount": null,
            "fxRate": "0.22",
            "totalFee": null,
            "costToSend": null,
            "balanceBefore": 230.20,
            "balanceAfter": 220.20,
            "balanceAfterDisplay": "220.20",
            "workingCurrencyUnit": "JPY",
            "workingCurrencySymbol": "¥",
            "destinationCurrencyUnit": null,
            "destinationCurrencySymbol": null,
            "txType": "Sell currency",
            "transactionTypeCode": "DR",
            "billableEvent": 343,
            "billableEvent2": 0,
            "reversalOriginalTransactionId": 0,
            "transactionId": "512620",
            "utransactionId": null,
            "paymentTrailId": null,
            "originCode": null,
            "destinationCode": null,
            "creditName": null,
            "debitName": null,
            "date": 1745417129549,
            "receiptAdditionalDetails": null,
            "salesId": 0,
            "latitude": -36.90544236136767,
            "longitude": 174.7164117816925,
            "productId": null,
            "billerId": null,
            "pylId": 55042,
            "paymentModeId": null,
            "sourceAcctId": 1021,
            "relatedAcctId": 1041,
            "bplId": 55042,
            "transactionCCNumber": null,
            "externalAccount": null,
            "externalReference": "7gk38fj55k5",
            "additionalDetails": null
        }
    ],
    "pageable": {
        "sort": [
            {
                "direction": "DESC",
                "property": "txnlid",
                "ignoreCase": false,
                "nullHandling": "NATIVE",
                "descending": true,
                "ascending": false
            }
        ],
        "offset": 0,
        "pageNumber": 0,
        "pageSize": 3,
        "paged": true,
        "unpaged": false
    },
    "totalElements": 631,
    "totalPages": 64,
    "last": false,
    "size": 3,
    "number": 0,
    "sort": [
        {
            "direction": "DESC",
            "property": "txnlid",
            "ignoreCase": false,
            "nullHandling": "NATIVE",
            "descending": true,
            "ascending": false
        }
    ],
    "numberOfElements": 3,
    "first": true,
    "empty": false
}