{
    "content": [
        {
            "merchantId": null,
            "customerId": null,
            "nfcTagId": null,
            "terminalId": null,
            "contactMsisdn": null,
            "paymentType": "Spending",
            "status": null,
            "message": "Starbucks",
            "duration": null,
            "dateFallback": null,
            "accountRefId": "1021",
            "transactionRef": "512661",
            "balanceType": 3000,
            "extSession": "1719898288080",
            "sourceRef": "EDC/ECOM",
            "patternA": "278668662",
            "patternB": "1041",
            "patternC": null,
            "workingAmount": 10.00,
            "workingAmountDisplay": "10.00",
            "sendingAmountExclFee": null,
            "receivedAmount": null,
            "fxRate": null,
            "totalFee": null,
            "costToSend": null,
            "balanceBefore": 210.20,
            "balanceAfter": 200.20,
            "balanceAfterDisplay": "200.20",
            "workingCurrencyUnit": "USD",
            "workingCurrencySymbol": "$",
            "destinationCurrencyUnit": null,
            "destinationCurrencySymbol": null,
            "txType": "Spending",
            "transactionTypeCode": "DR",
            "billableEvent": 343,
            "billableEvent2": 0,
            "reversalOriginalTransactionId": 0,
            "transactionId": "512660",
            "utransactionId": null,
            "paymentTrailId": null,
            "originCode": null,
            "destinationCode": null,
            "creditName": "Aggregated Merchant",
            "debitName": null,
            "date": 1745421699659,
            "receiptAdditionalDetails": null,
            "salesId": 0,
            "latitude": -36.90544236136767,
            "longitude": 174.7164117816925,
            "productId": "et",
            "billerId": "etb",
            "pylId": 55081,
            "paymentModeId": null,
            "sourceAcctId": 1021,
            "relatedAcctId": 1041,
            "bplId": 55081,
            "transactionCCNumber": null,
            "externalAccount": null,
            "externalReference": "7gk38fj55k5",
            "additionalDetails": {
                "billerType": "",
                "payerName": "Joe+Bloggs",
                "merchantAccountId": "null",
                "billerName": "Starbucks",
                "productTypeCode": "",
                "productName": "Starbucks"
            }
        },
        {
            "merchantId": null,
            "customerId": null,
            "nfcTagId": null,
            "terminalId": null,
            "contactMsisdn": null,
            "paymentType": "Buy currency",
            "status": null,
            "message": "Buy USD",
            "duration": null,
            "dateFallback": null,
            "accountRefId": "1021",
            "transactionRef": "512641",
            "balanceType": 3000,
            "extSession": "1719189670468",
            "sourceRef": "EDC/ECOM",
            "patternA": "278668662",
            "patternB": "1041",
            "patternC": null,
            "workingAmount": 10.00,
            "workingAmountDisplay": "10.00",
            "sendingAmountExclFee": null,
            "receivedAmount": null,
            "fxRate": "34.44",
            "totalFee": null,
            "costToSend": null,
            "balanceBefore": 220.20,
            "balanceAfter": 210.20,
            "balanceAfterDisplay": "210.20",
            "workingCurrencyUnit": "USD",
            "workingCurrencySymbol": "$",
            "destinationCurrencyUnit": null,
            "destinationCurrencySymbol": null,
            "txType": "Buy currency",
            "transactionTypeCode": "CR",
            "billableEvent": 343,
            "billableEvent2": 0,
            "reversalOriginalTransactionId": 0,
            "transactionId": "512640",
            "utransactionId": null,
            "paymentTrailId": null,
            "originCode": null,
            "destinationCode": null,
            "creditName": "Currency Exchange",
            "debitName": null,
            "date": 1745417137627,
            "receiptAdditionalDetails": null,
            "salesId": 0,
            "latitude": -36.90544236136767,
            "longitude": 174.7164117816925,
            "productId": null,
            "billerId": null,
            "pylId": 55061,
            "paymentModeId": null,
            "sourceAcctId": 1021,
            "relatedAcctId": 1041,
            "bplId": 55061,
            "transactionCCNumber": null,
            "externalAccount": null,
            "externalReference": "7gk38fj55k5",
            "additionalDetails": null
        },
        {
            "merchantId": null,
            "customerId": null,
            "nfcTagId": null,
            "terminalId": null,
            "contactMsisdn": null,
            "paymentType": "Sell currency",
            "status": null,
            "message": "Sell JPY",
            "duration": null,
            "dateFallback": null,
            "accountRefId": "1021",
            "transactionRef": "512621",
            "balanceType": 3000,
            "extSession": "1719180874727",
            "sourceRef": null,
            "patternA": "278668662",
            "patternB": "1041",
            "patternC": null,
            "workingAmount": 10.00,
            "workingAmountDisplay": "10.00",
            "sendingAmountExclFee": null,
            "receivedAmount": null,
            "fxRate": "0.22",
            "totalFee": null,
            "costToSend": null,
            "balanceBefore": 230.20,
            "balanceAfter": 220.20,
            "balanceAfterDisplay": "220.20",
            "workingCurrencyUnit": "JPY",
            "workingCurrencySymbol": "¥",
            "destinationCurrencyUnit": null,
            "destinationCurrencySymbol": null,
            "txType": "Sell currency",
            "transactionTypeCode": "DR",
            "billableEvent": 343,
            "billableEvent2": 0,
            "reversalOriginalTransactionId": 0,
            "transactionId": "512620",
            "utransactionId": null,
            "paymentTrailId": null,
            "originCode": null,
            "destinationCode": null,
            "creditName": null,
            "debitName": null,
            "date": 1745417129549,
            "receiptAdditionalDetails": null,
            "salesId": 0,
            "latitude": -36.90544236136767,
            "longitude": 174.7164117816925,
            "productId": null,
            "billerId": null,
            "pylId": 55042,
            "paymentModeId": null,
            "sourceAcctId": 1021,
            "relatedAcctId": 1041,
            "bplId": 55042,
            "transactionCCNumber": null,
            "externalAccount": null,
            "externalReference": "7gk38fj55k5",
            "additionalDetails": null
        },
        {
            "merchantId": null,
            "customerId": null,
            "nfcTagId": null,
            "terminalId": null,
            "contactMsisdn": null,
            "paymentType": "Spending",
            "status": null,
            "message": "Spending (out of 11 currencies)",
            "duration": null,
            "dateFallback": null,
            "accountRefId": "1021",
            "transactionRef": "512601",
            "balanceType": 3000,
            "extSession": "1719180844555",
            "sourceRef": null,
            "patternA": "278668662",
            "patternB": "1041",
            "patternC": null,
            "workingAmount": 10.00,
            "workingAmountDisplay": "10.00",
            "sendingAmountExclFee": null,
            "receivedAmount": 425.79,
            "fxRate": "0.023",
            "totalFee": null,
            "costToSend": null,
            "balanceBefore": 240.20,
            "balanceAfter": 230.20,
            "balanceAfterDisplay": "230.20",
            "workingCurrencyUnit": "THB",
            "workingCurrencySymbol": "฿",
            "destinationCurrencyUnit": "KRW",
            "destinationCurrencySymbol": "₩",
            "txType": "Spending",
            "transactionTypeCode": "DR",
            "billableEvent": 343,
            "billableEvent2": 0,
            "reversalOriginalTransactionId": 0,
            "transactionId": "512600",
            "utransactionId": null,
            "paymentTrailId": null,
            "originCode": "VFMM",
            "destinationCode": null,
            "creditName": "Starbucks Seoul",
            "debitName": null,
            "date": 1745417122901,
            "receiptAdditionalDetails": null,
            "salesId": 0,
            "latitude": -36.90544236136767,
            "longitude": 174.7164117816925,
            "productId": "et",
            "billerId": "etb",
            "pylId": 55041,
            "paymentModeId": null,
            "sourceAcctId": 1021,
            "relatedAcctId": 1041,
            "bplId": 55041,
            "transactionCCNumber": null,
            "externalAccount": null,
            "externalReference": "7gk38fj55k5",
            "additionalDetails": null
        },
        {
            "merchantId": null,
            "customerId": null,
            "nfcTagId": null,
            "terminalId": null,
            "contactMsisdn": null,
            "paymentType": "Top up",
            "status": null,
            "message": "topup test",
            "duration": null,
            "dateFallback": null,
            "accountRefId": "1021",
            "transactionRef": "512560",
            "balanceType": 3000,
            "extSession": "0d9dd4f9-7373-4fe9-826f-b7b03a3a5092",
            "sourceRef": "BBL",
            "patternA": "140",
            "patternB": "278668662",
            "patternC": "",
            "workingAmount": 100.00,
            "workingAmountDisplay": "100.00",
            "sendingAmountExclFee": null,
            "receivedAmount": null,
            "fxRate": null,
            "totalFee": null,
            "costToSend": null,
            "balanceBefore": 140.20,
            "balanceAfter": 240.20,
            "balanceAfterDisplay": "240.20",
            "workingCurrencyUnit": "THB",
            "workingCurrencySymbol": "฿",
            "destinationCurrencyUnit": null,
            "destinationCurrencySymbol": null,
            "txType": "Top up",
            "transactionTypeCode": "CR",
            "billableEvent": 318,
            "billableEvent2": 0,
            "reversalOriginalTransactionId": 0,
            "transactionId": "512561",
            "utransactionId": null,
            "paymentTrailId": null,
            "originCode": "",
            "destinationCode": "",
            "creditName": null,
            "debitName": "Default Top Up",
            "date": 1745417113669,
            "receiptAdditionalDetails": null,
            "salesId": 0,
            "latitude": 0.0,
            "longitude": 0.0,
            "productId": null,
            "billerId": null,
            "pylId": null,
            "paymentModeId": null,
            "sourceAcctId": 140,
            "relatedAcctId": 1021,
            "bplId": null,
            "transactionCCNumber": null,
            "externalAccount": null,
            "externalReference": "0d9dd4f9-7373-4fe9-826f-b7b03a3a5092",
            "additionalDetails": {
                "debtorAgent": "Bangkok Bank PCL",
                "debtorAgentLocalized": "ธนาคารกรุงเทพ",
                "debtorName": "Joe Bloggs",
                "paymentPurpose": "General purpose",
                "shortName": "BBL",
                "debtorId": "8650011023"
            }
        },
        {
            "merchantId": null,
            "customerId": null,
            "nfcTagId": null,
            "terminalId": null,
            "contactMsisdn": null,
            "paymentType": "Top up",
            "status": null,
            "message": "hello",
            "duration": null,
            "dateFallback": null,
            "accountRefId": "1021",
            "transactionRef": "512500",
            "balanceType": 3000,
            "extSession": "5164331c-8527-4f3f-af78-bf54d911cb7a",
            "sourceRef": "BBL",
            "patternA": "140",
            "patternB": "278668662",
            "patternC": "",
            "workingAmount": 100.00,
            "workingAmountDisplay": "100.00",
            "sendingAmountExclFee": null,
            "receivedAmount": null,
            "fxRate": null,
            "totalFee": null,
            "costToSend": null,
            "balanceBefore": 40.20,
            "balanceAfter": 140.20,
            "balanceAfterDisplay": "140.20",
            "workingCurrencyUnit": "THB",
            "workingCurrencySymbol": "฿",
            "destinationCurrencyUnit": null,
            "destinationCurrencySymbol": null,
            "txType": "Top up",
            "transactionTypeCode": "CR",
            "billableEvent": 318,
            "billableEvent2": 0,
            "reversalOriginalTransactionId": 0,
            "transactionId": "512501",
            "utransactionId": null,
            "paymentTrailId": null,
            "originCode": "",
            "destinationCode": "",
            "creditName": null,
            "debitName": "Default Top Up",
            "date": 1745417106135,
            "receiptAdditionalDetails": null,
            "salesId": 0,
            "latitude": 0.0,
            "longitude": 0.0,
            "productId": null,
            "billerId": null,
            "pylId": null,
            "paymentModeId": null,
            "sourceAcctId": 140,
            "relatedAcctId": 1021,
            "bplId": null,
            "transactionCCNumber": null,
            "externalAccount": null,
            "externalReference": "5164331c-8527-4f3f-af78-bf54d911cb7a",
            "additionalDetails": {
                "debtorAgent": "Bangkok Bank PCL",
                "debtorAgentLocalized": "ธนาคารกรุงเทพ",
                "debtorName": "Joe Bloggs",
                "paymentPurpose": "General purpose",
                "shortName": "BBL",
                "debtorId": "8650011023"
            }
        },
        {
            "merchantId": null,
            "customerId": null,
            "nfcTagId": null,
            "terminalId": null,
            "contactMsisdn": null,
            "paymentType": "Top up",
            "status": null,
            "message": "hello",
            "duration": null,
            "dateFallback": null,
            "accountRefId": "1021",
            "transactionRef": "512480",
            "balanceType": 3000,
            "extSession": "5164331c-8527-4f3f-af78-bf54d911cb7a",
            "sourceRef": "BBL",
            "patternA": "140",
            "patternB": "278668662",
            "patternC": "",
            "workingAmount": 100.00,
            "workingAmountDisplay": "100.00",
            "sendingAmountExclFee": null,
            "receivedAmount": null,
            "fxRate": null,
            "totalFee": null,
            "costToSend": null,
            "balanceBefore": -59.80,
            "balanceAfter": 40.20,
            "balanceAfterDisplay": "40.20",
            "workingCurrencyUnit": "THB",
            "workingCurrencySymbol": "฿",
            "destinationCurrencyUnit": null,
            "destinationCurrencySymbol": null,
            "txType": "Top up",
            "transactionTypeCode": "CR",
            "billableEvent": 318,
            "billableEvent2": 0,
            "reversalOriginalTransactionId": 0,
            "transactionId": "512481",
            "utransactionId": null,
            "paymentTrailId": null,
            "originCode": "",
            "destinationCode": "",
            "creditName": null,
            "debitName": "Default Top Up",
            "date": 1745417098536,
            "receiptAdditionalDetails": null,
            "salesId": 0,
            "latitude": 0.0,
            "longitude": 0.0,
            "productId": null,
            "billerId": null,
            "pylId": null,
            "paymentModeId": null,
            "sourceAcctId": 140,
            "relatedAcctId": 1021,
            "bplId": null,
            "transactionCCNumber": null,
            "externalAccount": null,
            "externalReference": "5164331c-8527-4f3f-af78-bf54d911cb7a",
            "additionalDetails": {
                "debtorAgent": "Bangkok Bank PCL",
                "debtorAgentLocalized": "ธนาคารกรุงเทพ",
                "debtorName": "Joe Bloggs",
                "paymentPurpose": "General purpose",
                "shortName": "BBL",
                "debtorId": "8650011023"
            }
        },
        {
            "merchantId": null,
            "customerId": null,
            "nfcTagId": null,
            "terminalId": null,
            "contactMsisdn": null,
            "paymentType": "Cash-out",
            "status": null,
            "message": "Cash-out",
            "duration": null,
            "dateFallback": null,
            "accountRefId": "1021",
            "transactionRef": "512221",
            "balanceType": 3000,
            "extSession": "1718078398135",
            "sourceRef": null,
            "patternA": "278668662",
            "patternB": "1041",
            "patternC": null,
            "workingAmount": 1.00,
            "workingAmountDisplay": "1.00",
            "sendingAmountExclFee": null,
            "receivedAmount": null,
            "fxRate": null,
            "totalFee": null,
            "costToSend": null,
            "balanceBefore": -58.80,
            "balanceAfter": -59.80,
            "balanceAfterDisplay": "-59.80",
            "workingCurrencyUnit": "THB",
            "workingCurrencySymbol": "฿",
            "destinationCurrencyUnit": null,
            "destinationCurrencySymbol": null,
            "txType": "Cash-out",
            "transactionTypeCode": "DR",
            "billableEvent": 343,
            "billableEvent2": 0,
            "reversalOriginalTransactionId": 0,
            "transactionId": "512220",
            "utransactionId": null,
            "paymentTrailId": null,
            "originCode": "VFMM",
            "destinationCode": "RABBITBILL",
            "creditName": "Default Cashout",
            "debitName": null,
            "date": 1745417091065,
            "receiptAdditionalDetails": null,
            "salesId": 0,
            "latitude": -36.90544236136767,
            "longitude": 174.7164117816925,
            "productId": "et",
            "billerId": "etb",
            "pylId": 54581,
            "paymentModeId": null,
            "sourceAcctId": 1021,
            "relatedAcctId": 1041,
            "bplId": 54581,
            "transactionCCNumber": null,
            "externalAccount": null,
            "externalReference": "",
            "additionalDetails": {
                "Gate Number": "1",
                "productId": "et",
                "billerIdentifier": "etb",
                "billerType": "",
                "payerName": "Joe+Bloggs",
                "merchantAccountId": "null",
                "billerName": "Electric+Train",
                "productTypeCode": "",
                "productName": "Electric+Train"
            }
        },
        {
            "merchantId": null,
            "customerId": null,
            "nfcTagId": null,
            "terminalId": null,
            "contactMsisdn": null,
            "paymentType": "Withdraw ATM",
            "status": null,
            "message": "withdraw at the airport",
            "duration": null,
            "dateFallback": null,
            "accountRefId": "1021",
            "transactionRef": "512061",
            "balanceType": 3000,
            "extSession": "1717544990649",
            "sourceRef": null,
            "patternA": "278668662",
            "patternB": "1041",
            "patternC": null,
            "workingAmount": 610.00,
            "workingAmountDisplay": "610.00",
            "sendingAmountExclFee": null,
            "receivedAmount": null,
            "fxRate": null,
            "totalFee": null,
            "costToSend": null,
            "balanceBefore": 551.20,
            "balanceAfter": -58.80,
            "balanceAfterDisplay": "-58.80",
            "workingCurrencyUnit": "THB",
            "workingCurrencySymbol": "฿",
            "destinationCurrencyUnit": null,
            "destinationCurrencySymbol": null,
            "txType": "Withdraw ATM",
            "transactionTypeCode": "DR",
            "billableEvent": 343,
            "billableEvent2": 0,
            "reversalOriginalTransactionId": 0,
            "transactionId": "512060",
            "utransactionId": null,
            "paymentTrailId": null,
            "originCode": "VFMM",
            "destinationCode": "RABBITBILL",
            "creditName": "Default ATM",
            "debitName": null,
            "date": 1745416594137,
            "receiptAdditionalDetails": null,
            "salesId": 0,
            "latitude": -36.90544236136767,
            "longitude": 174.7164117816925,
            "productId": "et",
            "billerId": "etb",
            "pylId": 54442,
            "paymentModeId": null,
            "sourceAcctId": 1021,
            "relatedAcctId": 1041,
            "bplId": 54442,
            "transactionCCNumber": null,
            "externalAccount": null,
            "externalReference": "7gk38fj55k5",
            "additionalDetails": {
                "Gate Number": "1",
                "productId": "et",
                "billerIdentifier": "etb",
                "billerType": "",
                "payerName": "Joe+Bloggs",
                "merchantAccountId": "null",
                "billerName": "Electric+Train",
                "productTypeCode": "",
                "productName": "Electric+Train"
            }
        },
        {
            "merchantId": null,
            "customerId": null,
            "nfcTagId": null,
            "terminalId": null,
            "contactMsisdn": null,
            "paymentType": "Fee",
            "status": null,
            "message": "charged for 10 thb",
            "duration": null,
            "dateFallback": null,
            "accountRefId": "1021",
            "transactionRef": "512041",
            "balanceType": 3000,
            "extSession": "1717544027600",
            "sourceRef": null,
            "patternA": "278668662",
            "patternB": "1041",
            "patternC": null,
            "workingAmount": 10.00,
            "workingAmountDisplay": "10.00",
            "sendingAmountExclFee": null,
            "receivedAmount": null,
            "fxRate": null,
            "totalFee": null,
            "costToSend": null,
            "balanceBefore": 561.20,
            "balanceAfter": 551.20,
            "balanceAfterDisplay": "551.20",
            "workingCurrencyUnit": "THB",
            "workingCurrencySymbol": "฿",
            "destinationCurrencyUnit": null,
            "destinationCurrencySymbol": null,
            "txType": "Fee",
            "transactionTypeCode": "DR",
            "billableEvent": 343,
            "billableEvent2": 0,
            "reversalOriginalTransactionId": 0,
            "transactionId": "512040",
            "utransactionId": null,
            "paymentTrailId": null,
            "originCode": "VFMM",
            "destinationCode": "RABBITBILL",
            "creditName": "Default Fee",
            "debitName": null,
            "date": 1745416594137,
            "receiptAdditionalDetails": null,
            "salesId": 0,
            "latitude": -36.90544236136767,
            "longitude": 174.7164117816925,
            "productId": "et",
            "billerId": "etb",
            "pylId": 54441,
            "paymentModeId": null,
            "sourceAcctId": 1021,
            "relatedAcctId": 1041,
            "bplId": 54441,
            "transactionCCNumber": null,
            "externalAccount": null,
            "externalReference": "7gk38fj55k5",
            "additionalDetails": {
                "Gate Number": "1",
                "productId": "et",
                "billerIdentifier": "etb",
                "billerType": "",
                "payerName": "Joe+Bloggs",
                "merchantAccountId": "null",
                "billerName": "Electric+Train",
                "productTypeCode": "",
                "productName": "Electric+Train"
            }
        }
    ],
    "pageable": {
        "sort": [
            {
                "direction": "DESC",
                "property": "txnlid",
                "ignoreCase": false,
                "nullHandling": "NATIVE",
                "descending": true,
                "ascending": false
            }
        ],
        "offset": 0,
        "pageNumber": 0,
        "pageSize": 10,
        "paged": true,
        "unpaged": false
    },
    "totalElements": 631,
    "totalPages": 64,
    "last": false,
    "size": 10,
    "number": 0,
    "sort": [
        {
            "direction": "DESC",
            "property": "txnlid",
            "ignoreCase": false,
            "nullHandling": "NATIVE",
            "descending": true,
            "ascending": false
        }
    ],
    "numberOfElements": 10,
    "first": true,
    "empty": false
}